<?xml version="1.0" encoding="UTF-8" standalone="no"?>
<svg
   xmlns:dc="http://purl.org/dc/elements/1.1/"
   xmlns:cc="http://creativecommons.org/ns#"
   xmlns:rdf="http://www.w3.org/1999/02/22-rdf-syntax-ns#"
   xmlns:svg="http://www.w3.org/2000/svg"
   xmlns="http://www.w3.org/2000/svg"
   xmlns:xlink="http://www.w3.org/1999/xlink"
   xmlns:sodipodi="http://sodipodi.sourceforge.net/DTD/sodipodi-0.dtd"
   xmlns:inkscape="http://www.inkscape.org/namespaces/inkscape"
   id="svg2"
   width="144"
   height="144"
   version="1.0"
   sodipodi:docname="zxspriter.svg"
   inkscape:version="1.0.2 (e86c870879, 2021-01-15)">
  <metadata
     id="metadata923">
    <rdf:RDF>
      <cc:Work
         rdf:about="">
        <dc:format>image/svg+xml</dc:format>
        <dc:type
           rdf:resource="http://purl.org/dc/dcmitype/StillImage" />
        <dc:title></dc:title>
      </cc:Work>
    </rdf:RDF>
  </metadata>
  <defs
     id="defs921">
    <linearGradient
       inkscape:collect="always"
       id="linearGradient1497">
      <stop
         style="stop-color:#31372a;stop-opacity:0.00174295"
         offset="0"
         id="stop1493" />
      <stop
         style="stop-color:#31372a;stop-opacity:0.99997175"
         offset="1"
         id="stop1495" />
    </linearGradient>
    <rect
       x="10.413167"
       y="52.33988"
       width="127.397"
       height="48.903062"
       id="rect927" />
    <radialGradient
       inkscape:collect="always"
       xlink:href="#linearGradient1497"
       id="radialGradient1501"
       gradientUnits="userSpaceOnUse"
       gradientTransform="matrix(2.1176988,2.3110179,-2.1495806,1.9697658,-56.183197,35.192804)"
       cx="3.8316696"
       cy="-22.36198"
       fx="3.8316696"
       fy="-22.36198"
       r="29.822397" />
  </defs>
  <sodipodi:namedview
     pagecolor="#ffffff"
     bordercolor="#666666"
     borderopacity="1"
     objecttolerance="10"
     gridtolerance="10"
     guidetolerance="10"
     inkscape:pageopacity="0"
     inkscape:pageshadow="2"
     inkscape:window-width="1920"
     inkscape:window-height="1016"
     id="namedview919"
     showgrid="false"
     inkscape:zoom="2.6979167"
     inkscape:cx="73.232205"
     inkscape:cy="17.403188"
     inkscape:window-x="0"
     inkscape:window-y="27"
     inkscape:window-maximized="1"
     inkscape:current-layer="svg2" />
  <rect
     id="a"
     style="opacity:1;fill:#31372a;stroke:none"
     width="144"
     height="143.84433"
     x="0"
     y="0" />
  <path
     id="b"
     style="fill:#dd5555;fill-opacity:1;stroke:none"
     d="M 144,24 L 84,144 L 96,144 L 144,48 L 144,24 z" />
  <path
     id="c"
     style="fill:#77aa44;fill-opacity:1;stroke:none"
     d="M 144,72 L 108,144 L 120,144 L 144,96 L 144,72 z" />
  <path
     id="h"
     style="fill:#4477aa;fill-opacity:1;stroke:none"
     d="M 144,96 L 120,144 L 132,144 L 144,120 L 144,96 z" />
  <path
     id="i"
     style="fill:#ee9944;fill-opacity:1;stroke:none"
     d="M 144,72 L 108,144 L 96,144 L 144,48 L 144,72 z" />
  <g
     id="g1628"
     transform="translate(-2.6384607,32.805668)">
    <g
       aria-label="ZXSpriter"
       transform="translate(1.4116348,5.7857968)"
       id="text925-7"
       style="font-style:normal;font-weight:normal;font-size:14.6667px;line-height:1.25;font-family:sans-serif;letter-spacing:0px;word-spacing:0px;white-space:pre;shape-inside:url(#rect927);fill:#000000;fill-opacity:1;stroke:none">
      <path
         d="m 11.91146,56.493495 h 15.273457 v 2.005211 L 14.893235,73.720079 h 12.591162 v 2.213545 H 11.611981 V 73.928413 L 23.903663,58.707039 H 11.91146 Z"
         style="font-size:26.6667px;fill:#000000;fill-opacity:1"
         id="path1521-7" />
      <path
         d="m 30.362004,56.493495 h 2.825524 l 4.830735,7.226571 4.856777,-7.226571 h 2.825525 l -6.250008,9.335949 6.666675,10.10418 h -2.825525 l -5.468757,-8.26824 -5.507819,8.26824 h -2.838545 l 6.940113,-10.377618 z"
         style="font-size:26.6667px;fill:#000000;fill-opacity:1"
         id="path1523-1" />
      <path
         d="m 61.221417,57.131516 v 2.565108 q -1.497398,-0.716147 -2.825525,-1.06771 -1.328126,-0.351563 -2.565107,-0.351563 -2.14844,0 -3.320317,0.833335 -1.158855,0.833334 -1.158855,2.369794 0,1.289064 0.76823,1.953128 0.781251,0.651042 2.942712,1.054689 l 1.588543,0.325521 q 2.942712,0.559896 4.335943,1.979169 1.406252,1.406252 1.406252,3.776046 0,2.825525 -1.901044,4.28386 -1.888023,1.458335 -5.546882,1.458335 -1.38021,0 -2.942712,-0.3125 -1.549481,-0.312501 -3.21615,-0.924481 v -2.708336 q 1.601565,0.898438 3.138025,1.354168 1.53646,0.45573 3.020837,0.45573 2.252607,0 3.476567,-0.885418 1.22396,-0.885418 1.22396,-2.526045 0,-1.432293 -0.885418,-2.239586 -0.872397,-0.807293 -2.877608,-1.210939 l -1.601564,-0.3125 q -2.942712,-0.585939 -4.257818,-1.83594 -1.315106,-1.250002 -1.315106,-3.476567 0,-2.578128 1.809898,-4.062505 1.822919,-1.484377 5.013027,-1.484377 1.36719,0 2.786462,0.247396 1.419273,0.247396 2.90365,0.742188 z"
         style="font-size:26.6667px;fill:#000000;fill-opacity:1"
         id="path1525-1" />
      <path
         d="m 68.708406,73.746121 v 7.734385 H 66.299548 V 61.350272 h 2.408858 v 2.213544 q 0.755209,-1.302085 1.901044,-1.927086 1.158855,-0.638021 2.76042,-0.638021 2.656253,0 4.309901,2.109378 1.666669,2.109377 1.666669,5.546882 0,3.437504 -1.666669,5.546882 -1.653648,2.109377 -4.309901,2.109377 -1.601565,0 -2.76042,-0.625001 -1.145835,-0.638021 -1.901044,-1.940106 z m 8.151052,-5.091152 q 0,-2.643233 -1.093752,-4.140631 -1.08073,-1.510418 -2.981774,-1.510418 -1.901045,0 -2.994796,1.510418 -1.08073,1.497398 -1.08073,4.140631 0,2.643232 1.08073,4.153651 1.093751,1.497397 2.994796,1.497397 1.901044,0 2.981774,-1.497397 1.093752,-1.510419 1.093752,-4.153651 z"
         style="font-size:26.6667px;fill:#000000;fill-opacity:1"
         id="path1527-5" />
      <path
         d="m 91.768335,63.589858 q -0.403647,-0.234375 -0.885418,-0.338542 -0.468751,-0.117188 -1.041668,-0.117188 -2.031253,0 -3.125004,1.328127 -1.080731,1.315106 -1.080731,3.789067 v 7.682302 H 83.226657 V 61.350272 h 2.408857 V 63.6159 q 0.75521,-1.328127 1.966149,-1.966149 1.210939,-0.651042 2.942712,-0.651042 0.247396,0 0.546875,0.03906 0.29948,0.02604 0.664064,0.09115 z"
         style="font-size:26.6667px;fill:#000000;fill-opacity:1"
         id="path1529-9" />
      <path
         d="m 94.281357,61.350272 h 2.395837 v 14.583352 h -2.395837 z m 0,-5.677091 h 2.395837 v 3.033858 h -2.395837 z"
         style="font-size:26.6667px;fill:#000000;fill-opacity:1"
         id="path1531-7" />
      <path
         d="m 104.06001,57.209642 v 4.14063 h 4.9349 v 1.861981 h -4.9349 v 7.916677 q 0,1.783856 0.48177,2.29167 0.4948,0.507813 1.99219,0.507813 h 2.46094 v 2.005211 h -2.46094 q -2.77344,0 -3.82813,-1.028648 -1.05469,-1.041668 -1.05469,-3.776046 v -7.916677 h -1.757811 v -1.861981 h 1.757811 v -4.14063 z"
         style="font-size:26.6667px;fill:#000000;fill-opacity:1"
         id="path1533-7" />
      <path
         d="m 124.61993,68.042989 v 1.171876 h -11.01564 q 0.15625,2.473962 1.48438,3.776047 1.34115,1.289064 3.72396,1.289064 1.38021,0 2.66928,-0.338542 1.30208,-0.338543 2.57813,-1.015627 v 2.265628 q -1.28907,0.546876 -2.64324,0.833335 -1.35416,0.286458 -2.7474,0.286458 -3.48958,0 -5.53386,-2.031252 -2.03125,-2.031253 -2.03125,-5.494799 0,-3.580734 1.92709,-5.67709 1.9401,-2.109378 5.22136,-2.109378 2.94271,0 4.64844,1.901044 1.71875,1.888023 1.71875,5.143236 z m -2.39583,-0.703126 q -0.0261,-1.966149 -1.10678,-3.138025 -1.06771,-1.171877 -2.83854,-1.171877 -2.00521,0 -3.21615,1.132814 -1.19792,1.132814 -1.38021,3.190109 z"
         style="font-size:26.6667px;fill:#000000;fill-opacity:1"
         id="path1535-6" />
      <path
         d="m 137.00276,63.589858 q -0.40364,-0.234375 -0.88541,-0.338542 -0.46876,-0.117188 -1.04167,-0.117188 -2.03126,0 -3.12501,1.328127 -1.08073,1.315106 -1.08073,3.789067 v 7.682302 h -2.40885 V 61.350272 h 2.40885 V 63.6159 q 0.75521,-1.328127 1.96615,-1.966149 1.21094,-0.651042 2.94271,-0.651042 0.2474,0 0.54688,0.03906 0.29948,0.02604 0.66406,0.09115 z"
         style="font-size:26.6667px;fill:#000000;fill-opacity:1"
         id="path1537-7" />
    </g>
    <g
       aria-label="ZXSpriter"
       transform="translate(0.4577665,3.9848275)"
       id="text925"
       style="font-style:normal;font-weight:normal;font-size:14.6667px;line-height:1.25;font-family:sans-serif;letter-spacing:0px;word-spacing:0px;white-space:pre;shape-inside:url(#rect927);fill:#000000;fill-opacity:1;stroke:none">
      <path
         d="m 11.91146,56.493495 h 15.273457 v 2.005211 L 14.893235,73.720079 h 12.591162 v 2.213545 H 11.611981 V 73.928413 L 23.903663,58.707039 H 11.91146 Z"
         style="font-size:26.6667px;fill:#ffffff;fill-opacity:1"
         id="path1521" />
      <path
         d="m 30.362004,56.493495 h 2.825524 l 4.830735,7.226571 4.856777,-7.226571 h 2.825525 l -6.250008,9.335949 6.666675,10.10418 h -2.825525 l -5.468757,-8.26824 -5.507819,8.26824 h -2.838545 l 6.940113,-10.377618 z"
         style="font-size:26.6667px;fill:#ffffff;fill-opacity:1"
         id="path1523" />
      <path
         d="m 61.221417,57.131516 v 2.565108 q -1.497398,-0.716147 -2.825525,-1.06771 -1.328126,-0.351563 -2.565107,-0.351563 -2.14844,0 -3.320317,0.833335 -1.158855,0.833334 -1.158855,2.369794 0,1.289064 0.76823,1.953128 0.781251,0.651042 2.942712,1.054689 l 1.588543,0.325521 q 2.942712,0.559896 4.335943,1.979169 1.406252,1.406252 1.406252,3.776046 0,2.825525 -1.901044,4.28386 -1.888023,1.458335 -5.546882,1.458335 -1.38021,0 -2.942712,-0.3125 -1.549481,-0.312501 -3.21615,-0.924481 v -2.708336 q 1.601565,0.898438 3.138025,1.354168 1.53646,0.45573 3.020837,0.45573 2.252607,0 3.476567,-0.885418 1.22396,-0.885418 1.22396,-2.526045 0,-1.432293 -0.885418,-2.239586 -0.872397,-0.807293 -2.877608,-1.210939 l -1.601564,-0.3125 q -2.942712,-0.585939 -4.257818,-1.83594 -1.315106,-1.250002 -1.315106,-3.476567 0,-2.578128 1.809898,-4.062505 1.822919,-1.484377 5.013027,-1.484377 1.36719,0 2.786462,0.247396 1.419273,0.247396 2.90365,0.742188 z"
         style="font-size:26.6667px;fill:#ffffff;fill-opacity:1"
         id="path1525" />
      <path
         d="m 68.708406,73.746121 v 7.734385 H 66.299548 V 61.350272 h 2.408858 v 2.213544 q 0.755209,-1.302085 1.901044,-1.927086 1.158855,-0.638021 2.76042,-0.638021 2.656253,0 4.309901,2.109378 1.666669,2.109377 1.666669,5.546882 0,3.437504 -1.666669,5.546882 -1.653648,2.109377 -4.309901,2.109377 -1.601565,0 -2.76042,-0.625001 -1.145835,-0.638021 -1.901044,-1.940106 z m 8.151052,-5.091152 q 0,-2.643233 -1.093752,-4.140631 -1.08073,-1.510418 -2.981774,-1.510418 -1.901045,0 -2.994796,1.510418 -1.08073,1.497398 -1.08073,4.140631 0,2.643232 1.08073,4.153651 1.093751,1.497397 2.994796,1.497397 1.901044,0 2.981774,-1.497397 1.093752,-1.510419 1.093752,-4.153651 z"
         style="font-size:26.6667px;fill:#ffffff;fill-opacity:1"
         id="path1527" />
      <path
         d="m 91.768335,63.589858 q -0.403647,-0.234375 -0.885418,-0.338542 -0.468751,-0.117188 -1.041668,-0.117188 -2.031253,0 -3.125004,1.328127 -1.080731,1.315106 -1.080731,3.789067 v 7.682302 H 83.226657 V 61.350272 h 2.408857 V 63.6159 q 0.75521,-1.328127 1.966149,-1.966149 1.210939,-0.651042 2.942712,-0.651042 0.247396,0 0.546875,0.03906 0.29948,0.02604 0.664064,0.09115 z"
         style="font-size:26.6667px;fill:#ffffff;fill-opacity:1"
         id="path1529" />
      <path
         d="m 94.281357,61.350272 h 2.395837 v 14.583352 h -2.395837 z m 0,-5.677091 h 2.395837 v 3.033858 h -2.395837 z"
         style="font-size:26.6667px;fill:#ffffff;fill-opacity:1"
         id="path1531" />
      <path
         d="m 104.06001,57.209642 v 4.14063 h 4.9349 v 1.861981 h -4.9349 v 7.916677 q 0,1.783856 0.48177,2.29167 0.4948,0.507813 1.99219,0.507813 h 2.46094 v 2.005211 h -2.46094 q -2.77344,0 -3.82813,-1.028648 -1.05469,-1.041668 -1.05469,-3.776046 v -7.916677 h -1.757811 v -1.861981 h 1.757811 v -4.14063 z"
         style="font-size:26.6667px;fill:#ffffff;fill-opacity:1"
         id="path1533" />
      <path
         d="m 124.61993,68.042989 v 1.171876 h -11.01564 q 0.15625,2.473962 1.48438,3.776047 1.34115,1.289064 3.72396,1.289064 1.38021,0 2.66928,-0.338542 1.30208,-0.338543 2.57813,-1.015627 v 2.265628 q -1.28907,0.546876 -2.64324,0.833335 -1.35416,0.286458 -2.7474,0.286458 -3.48958,0 -5.53386,-2.031252 -2.03125,-2.031253 -2.03125,-5.494799 0,-3.580734 1.92709,-5.67709 1.9401,-2.109378 5.22136,-2.109378 2.94271,0 4.64844,1.901044 1.71875,1.888023 1.71875,5.143236 z m -2.39583,-0.703126 q -0.0261,-1.966149 -1.10678,-3.138025 -1.06771,-1.171877 -2.83854,-1.171877 -2.00521,0 -3.21615,1.132814 -1.19792,1.132814 -1.38021,3.190109 z"
         style="font-size:26.6667px;fill:#ffffff;fill-opacity:1"
         id="path1535" />
      <path
         d="m 137.00276,63.589858 q -0.40364,-0.234375 -0.88541,-0.338542 -0.46876,-0.117188 -1.04167,-0.117188 -2.03126,0 -3.12501,1.328127 -1.08073,1.315106 -1.08073,3.789067 v 7.682302 h -2.40885 V 61.350272 h 2.40885 V 63.6159 q 0.75521,-1.328127 1.96615,-1.966149 1.21094,-0.651042 2.94271,-0.651042 0.2474,0 0.54688,0.03906 0.29948,0.02604 0.66406,0.09115 z"
         style="font-size:26.6667px;fill:#ffffff;fill-opacity:1"
         id="path1537" />
    </g>
  </g>
  <g
     id="g1472"
     transform="matrix(1.3445411,0,0,1.3445411,-10.929364,-5.942331)">
    <g
       id="g1088">
      <g
         id="g984">
        <rect
           style="fill:none;fill-opacity:1;stroke:#ffffff;stroke-width:1;stroke-linecap:round;stroke-linejoin:miter;stroke-miterlimit:4;stroke-dasharray:none;stroke-dashoffset:0;stroke-opacity:1"
           id="rect931"
           width="7.1436253"
           height="7.1436243"
           x="8.2568207"
           y="11.691348" />
        <rect
           style="fill:none;fill-opacity:1;stroke:#ffffff;stroke-width:1;stroke-linecap:round;stroke-linejoin:miter;stroke-miterlimit:4;stroke-dasharray:none;stroke-dashoffset:0;stroke-opacity:1"
           id="rect931-3"
           width="7.1436253"
           height="7.1436243"
           x="15.400446"
           y="11.691348" />
        <rect
           style="fill:none;fill-opacity:1;stroke:#ffffff;stroke-width:1;stroke-linecap:round;stroke-linejoin:miter;stroke-miterlimit:4;stroke-dasharray:none;stroke-dashoffset:0;stroke-opacity:1"
           id="rect931-6"
           width="7.1436253"
           height="7.1436243"
           x="22.544071"
           y="11.691348" />
        <rect
           style="fill:none;fill-opacity:1;stroke:#ffffff;stroke-width:1;stroke-linecap:round;stroke-linejoin:miter;stroke-miterlimit:4;stroke-dasharray:none;stroke-dashoffset:0;stroke-opacity:1"
           id="rect931-7"
           width="7.1436253"
           height="7.1436243"
           x="29.687696"
           y="11.691348" />
      </g>
      <g
         id="g984-3"
         transform="translate(28.574501)">
        <rect
           style="fill:none;fill-opacity:1;stroke:#ffffff;stroke-width:1;stroke-linecap:round;stroke-linejoin:miter;stroke-miterlimit:4;stroke-dasharray:none;stroke-dashoffset:0;stroke-opacity:1"
           id="rect931-5"
           width="7.1436253"
           height="7.1436243"
           x="8.2568207"
           y="11.691348" />
        <rect
           style="fill:none;fill-opacity:1;stroke:#ffffff;stroke-width:1;stroke-linecap:round;stroke-linejoin:miter;stroke-miterlimit:4;stroke-dasharray:none;stroke-dashoffset:0;stroke-opacity:1"
           id="rect931-3-6"
           width="7.1436253"
           height="7.1436243"
           x="15.400446"
           y="11.691348" />
        <rect
           style="fill:none;fill-opacity:1;stroke:#ffffff;stroke-width:1;stroke-linecap:round;stroke-linejoin:miter;stroke-miterlimit:4;stroke-dasharray:none;stroke-dashoffset:0;stroke-opacity:1"
           id="rect931-6-2"
           width="7.1436253"
           height="7.1436243"
           x="22.544071"
           y="11.691348" />
        <rect
           style="fill:none;fill-opacity:1;stroke:#ffffff;stroke-width:1;stroke-linecap:round;stroke-linejoin:miter;stroke-miterlimit:4;stroke-dasharray:none;stroke-dashoffset:0;stroke-opacity:1"
           id="rect931-7-9"
           width="7.1436253"
           height="7.1436243"
           x="29.687696"
           y="11.691348" />
      </g>
    </g>
    <g
       id="g1088-1"
       transform="translate(-3.7597655e-8,7.1436243)">
      <g
         id="g984-8">
        <rect
           style="fill:none;fill-opacity:1;stroke:#ffffff;stroke-width:1;stroke-linecap:round;stroke-linejoin:miter;stroke-miterlimit:4;stroke-dasharray:none;stroke-dashoffset:0;stroke-opacity:1"
           id="rect931-79"
           width="7.1436253"
           height="7.1436243"
           x="8.2568207"
           y="11.691348" />
        <rect
           style="fill:none;fill-opacity:1;stroke:#ffffff;stroke-width:1;stroke-linecap:round;stroke-linejoin:miter;stroke-miterlimit:4;stroke-dasharray:none;stroke-dashoffset:0;stroke-opacity:1"
           id="rect931-3-2"
           width="7.1436253"
           height="7.1436243"
           x="15.400446"
           y="11.691348" />
        <rect
           style="fill:none;fill-opacity:1;stroke:#ffffff;stroke-width:1;stroke-linecap:round;stroke-linejoin:miter;stroke-miterlimit:4;stroke-dasharray:none;stroke-dashoffset:0;stroke-opacity:1"
           id="rect931-6-0"
           width="7.1436253"
           height="7.1436243"
           x="22.544071"
           y="11.691348" />
        <rect
           style="fill:none;fill-opacity:1;stroke:#ffffff;stroke-width:1;stroke-linecap:round;stroke-linejoin:miter;stroke-miterlimit:4;stroke-dasharray:none;stroke-dashoffset:0;stroke-opacity:1"
           id="rect931-7-2"
           width="7.1436253"
           height="7.1436243"
           x="29.687696"
           y="11.691348" />
      </g>
      <g
         id="g984-3-3"
         transform="translate(28.574501)">
        <rect
           style="fill:none;fill-opacity:1;stroke:#ffffff;stroke-width:1;stroke-linecap:round;stroke-linejoin:miter;stroke-miterlimit:4;stroke-dasharray:none;stroke-dashoffset:0;stroke-opacity:1"
           id="rect931-5-7"
           width="7.1436253"
           height="7.1436243"
           x="8.2568207"
           y="11.691348" />
        <rect
           style="fill:none;fill-opacity:1;stroke:#ffffff;stroke-width:1;stroke-linecap:round;stroke-linejoin:miter;stroke-miterlimit:4;stroke-dasharray:none;stroke-dashoffset:0;stroke-opacity:1"
           id="rect931-3-6-5"
           width="7.1436253"
           height="7.1436243"
           x="15.400446"
           y="11.691348" />
        <rect
           style="fill:none;fill-opacity:1;stroke:#ffffff;stroke-width:1;stroke-linecap:round;stroke-linejoin:miter;stroke-miterlimit:4;stroke-dasharray:none;stroke-dashoffset:0;stroke-opacity:1"
           id="rect931-6-2-9"
           width="7.1436253"
           height="7.1436243"
           x="22.544071"
           y="11.691348" />
        <rect
           style="fill:none;fill-opacity:1;stroke:#ffffff;stroke-width:1;stroke-linecap:round;stroke-linejoin:miter;stroke-miterlimit:4;stroke-dasharray:none;stroke-dashoffset:0;stroke-opacity:1"
           id="rect931-7-9-2"
           width="7.1436253"
           height="7.1436243"
           x="29.687696"
           y="11.691348" />
      </g>
    </g>
    <g
       id="g1088-2"
       transform="translate(-7.5195308e-8,14.287249)">
      <g
         id="g984-89">
        <rect
           style="fill:none;fill-opacity:1;stroke:#ffffff;stroke-width:1;stroke-linecap:round;stroke-linejoin:miter;stroke-miterlimit:4;stroke-dasharray:none;stroke-dashoffset:0;stroke-opacity:1"
           id="rect931-73"
           width="7.1436253"
           height="7.1436243"
           x="8.2568207"
           y="11.691348" />
        <rect
           style="fill:none;fill-opacity:1;stroke:#ffffff;stroke-width:1;stroke-linecap:round;stroke-linejoin:miter;stroke-miterlimit:4;stroke-dasharray:none;stroke-dashoffset:0;stroke-opacity:1"
           id="rect931-3-61"
           width="7.1436253"
           height="7.1436243"
           x="15.400446"
           y="11.691348" />
        <rect
           style="fill:none;fill-opacity:1;stroke:#ffffff;stroke-width:1;stroke-linecap:round;stroke-linejoin:miter;stroke-miterlimit:4;stroke-dasharray:none;stroke-dashoffset:0;stroke-opacity:1"
           id="rect931-6-29"
           width="7.1436253"
           height="7.1436243"
           x="22.544071"
           y="11.691348" />
        <rect
           style="fill:none;fill-opacity:1;stroke:#ffffff;stroke-width:1;stroke-linecap:round;stroke-linejoin:miter;stroke-miterlimit:4;stroke-dasharray:none;stroke-dashoffset:0;stroke-opacity:1"
           id="rect931-7-3"
           width="7.1436253"
           height="7.1436243"
           x="29.687696"
           y="11.691348" />
      </g>
      <g
         id="g984-3-1"
         transform="translate(28.574501)">
        <rect
           style="fill:none;fill-opacity:1;stroke:#ffffff;stroke-width:1;stroke-linecap:round;stroke-linejoin:miter;stroke-miterlimit:4;stroke-dasharray:none;stroke-dashoffset:0;stroke-opacity:1"
           id="rect931-5-9"
           width="7.1436253"
           height="7.1436243"
           x="8.2568207"
           y="11.691348" />
        <rect
           style="fill:none;fill-opacity:1;stroke:#ffffff;stroke-width:1;stroke-linecap:round;stroke-linejoin:miter;stroke-miterlimit:4;stroke-dasharray:none;stroke-dashoffset:0;stroke-opacity:1"
           id="rect931-3-6-4"
           width="7.1436253"
           height="7.1436243"
           x="15.400446"
           y="11.691348" />
        <rect
           style="fill:none;fill-opacity:1;stroke:#ffffff;stroke-width:1;stroke-linecap:round;stroke-linejoin:miter;stroke-miterlimit:4;stroke-dasharray:none;stroke-dashoffset:0;stroke-opacity:1"
           id="rect931-6-2-7"
           width="7.1436253"
           height="7.1436243"
           x="22.544071"
           y="11.691348" />
        <rect
           style="fill:none;fill-opacity:1;stroke:#ffffff;stroke-width:1;stroke-linecap:round;stroke-linejoin:miter;stroke-miterlimit:4;stroke-dasharray:none;stroke-dashoffset:0;stroke-opacity:1"
           id="rect931-7-9-8"
           width="7.1436253"
           height="7.1436243"
           x="29.687696"
           y="11.691348" />
      </g>
    </g>
    <g
       id="g1088-4"
       transform="translate(-1.1279296e-7,21.430873)">
      <g
         id="g984-5">
        <rect
           style="fill:none;fill-opacity:1;stroke:#ffffff;stroke-width:1;stroke-linecap:round;stroke-linejoin:miter;stroke-miterlimit:4;stroke-dasharray:none;stroke-dashoffset:0;stroke-opacity:1"
           id="rect931-0"
           width="7.1436253"
           height="7.1436243"
           x="8.2568207"
           y="11.691348" />
        <rect
           style="fill:none;fill-opacity:1;stroke:#ffffff;stroke-width:1;stroke-linecap:round;stroke-linejoin:miter;stroke-miterlimit:4;stroke-dasharray:none;stroke-dashoffset:0;stroke-opacity:1"
           id="rect931-3-3"
           width="7.1436253"
           height="7.1436243"
           x="15.400446"
           y="11.691348" />
        <rect
           style="fill:none;fill-opacity:1;stroke:#ffffff;stroke-width:1;stroke-linecap:round;stroke-linejoin:miter;stroke-miterlimit:4;stroke-dasharray:none;stroke-dashoffset:0;stroke-opacity:1"
           id="rect931-6-6"
           width="7.1436253"
           height="7.1436243"
           x="22.544071"
           y="11.691348" />
        <rect
           style="fill:none;fill-opacity:1;stroke:#ffffff;stroke-width:1;stroke-linecap:round;stroke-linejoin:miter;stroke-miterlimit:4;stroke-dasharray:none;stroke-dashoffset:0;stroke-opacity:1"
           id="rect931-7-1"
           width="7.1436253"
           height="7.1436243"
           x="29.687696"
           y="11.691348" />
      </g>
      <g
         id="g984-3-0"
         transform="translate(28.574501)">
        <rect
           style="fill:none;fill-opacity:1;stroke:#ffffff;stroke-width:1;stroke-linecap:round;stroke-linejoin:miter;stroke-miterlimit:4;stroke-dasharray:none;stroke-dashoffset:0;stroke-opacity:1"
           id="rect931-5-6"
           width="7.1436253"
           height="7.1436243"
           x="8.2568207"
           y="11.691348" />
        <rect
           style="fill:none;fill-opacity:1;stroke:#ffffff;stroke-width:1;stroke-linecap:round;stroke-linejoin:miter;stroke-miterlimit:4;stroke-dasharray:none;stroke-dashoffset:0;stroke-opacity:1"
           id="rect931-3-6-3"
           width="7.1436253"
           height="7.1436243"
           x="15.400446"
           y="11.691348" />
        <rect
           style="fill:none;fill-opacity:1;stroke:#ffffff;stroke-width:1;stroke-linecap:round;stroke-linejoin:miter;stroke-miterlimit:4;stroke-dasharray:none;stroke-dashoffset:0;stroke-opacity:1"
           id="rect931-6-2-2"
           width="7.1436253"
           height="7.1436243"
           x="22.544071"
           y="11.691348" />
        <rect
           style="fill:none;fill-opacity:1;stroke:#ffffff;stroke-width:1;stroke-linecap:round;stroke-linejoin:miter;stroke-miterlimit:4;stroke-dasharray:none;stroke-dashoffset:0;stroke-opacity:1"
           id="rect931-7-9-0"
           width="7.1436253"
           height="7.1436243"
           x="29.687696"
           y="11.691348" />
      </g>
    </g>
    <g
       id="g1088-6"
       transform="translate(-7.5195308e-8,28.574497)">
      <g
         id="g984-1">
        <rect
           style="fill:none;fill-opacity:1;stroke:#ffffff;stroke-width:1;stroke-linecap:round;stroke-linejoin:miter;stroke-miterlimit:4;stroke-dasharray:none;stroke-dashoffset:0;stroke-opacity:1"
           id="rect931-55"
           width="7.1436253"
           height="7.1436243"
           x="8.2568207"
           y="11.691348" />
        <rect
           style="fill:none;fill-opacity:1;stroke:#ffffff;stroke-width:1;stroke-linecap:round;stroke-linejoin:miter;stroke-miterlimit:4;stroke-dasharray:none;stroke-dashoffset:0;stroke-opacity:1"
           id="rect931-3-4"
           width="7.1436253"
           height="7.1436243"
           x="15.400446"
           y="11.691348" />
        <rect
           style="fill:none;fill-opacity:1;stroke:#ffffff;stroke-width:1;stroke-linecap:round;stroke-linejoin:miter;stroke-miterlimit:4;stroke-dasharray:none;stroke-dashoffset:0;stroke-opacity:1"
           id="rect931-6-7"
           width="7.1436253"
           height="7.1436243"
           x="22.544071"
           y="11.691348" />
        <rect
           style="fill:none;fill-opacity:1;stroke:#ffffff;stroke-width:1;stroke-linecap:round;stroke-linejoin:miter;stroke-miterlimit:4;stroke-dasharray:none;stroke-dashoffset:0;stroke-opacity:1"
           id="rect931-7-6"
           width="7.1436253"
           height="7.1436243"
           x="29.687696"
           y="11.691348" />
      </g>
      <g
         id="g984-3-5"
         transform="translate(28.574501)">
        <rect
           style="fill:none;fill-opacity:1;stroke:#ffffff;stroke-width:1;stroke-linecap:round;stroke-linejoin:miter;stroke-miterlimit:4;stroke-dasharray:none;stroke-dashoffset:0;stroke-opacity:1"
           id="rect931-5-69"
           width="7.1436253"
           height="7.1436243"
           x="8.2568207"
           y="11.691348" />
        <rect
           style="fill:none;fill-opacity:1;stroke:#ffffff;stroke-width:1;stroke-linecap:round;stroke-linejoin:miter;stroke-miterlimit:4;stroke-dasharray:none;stroke-dashoffset:0;stroke-opacity:1"
           id="rect931-3-6-37"
           width="7.1436253"
           height="7.1436243"
           x="15.400446"
           y="11.691348" />
        <rect
           style="fill:none;fill-opacity:1;stroke:#ffffff;stroke-width:1;stroke-linecap:round;stroke-linejoin:miter;stroke-miterlimit:4;stroke-dasharray:none;stroke-dashoffset:0;stroke-opacity:1"
           id="rect931-6-2-4"
           width="7.1436253"
           height="7.1436243"
           x="22.544071"
           y="11.691348" />
        <rect
           style="fill:none;fill-opacity:1;stroke:#ffffff;stroke-width:1;stroke-linecap:round;stroke-linejoin:miter;stroke-miterlimit:4;stroke-dasharray:none;stroke-dashoffset:0;stroke-opacity:1"
           id="rect931-7-9-5"
           width="7.1436253"
           height="7.1436243"
           x="29.687696"
           y="11.691348" />
      </g>
    </g>
    <g
       id="g1088-25"
       transform="translate(0,-7.1436243)">
      <g
         id="g984-4">
        <rect
           style="fill:none;fill-opacity:1;stroke:#ffffff;stroke-width:1;stroke-linecap:round;stroke-linejoin:miter;stroke-miterlimit:4;stroke-dasharray:none;stroke-dashoffset:0;stroke-opacity:1"
           id="rect931-74"
           width="7.1436253"
           height="7.1436243"
           x="8.2568207"
           y="11.691348" />
        <rect
           style="fill:none;fill-opacity:1;stroke:#ffffff;stroke-width:1;stroke-linecap:round;stroke-linejoin:miter;stroke-miterlimit:4;stroke-dasharray:none;stroke-dashoffset:0;stroke-opacity:1"
           id="rect931-3-43"
           width="7.1436253"
           height="7.1436243"
           x="15.400446"
           y="11.691348" />
        <rect
           style="fill:none;fill-opacity:1;stroke:#ffffff;stroke-width:1;stroke-linecap:round;stroke-linejoin:miter;stroke-miterlimit:4;stroke-dasharray:none;stroke-dashoffset:0;stroke-opacity:1"
           id="rect931-6-07"
           width="7.1436253"
           height="7.1436243"
           x="22.544071"
           y="11.691348" />
        <rect
           style="fill:none;fill-opacity:1;stroke:#ffffff;stroke-width:1;stroke-linecap:round;stroke-linejoin:miter;stroke-miterlimit:4;stroke-dasharray:none;stroke-dashoffset:0;stroke-opacity:1"
           id="rect931-7-8"
           width="7.1436253"
           height="7.1436243"
           x="29.687696"
           y="11.691348" />
      </g>
      <g
         id="g984-3-6"
         transform="translate(28.574501)">
        <rect
           style="fill:none;fill-opacity:1;stroke:#ffffff;stroke-width:1;stroke-linecap:round;stroke-linejoin:miter;stroke-miterlimit:4;stroke-dasharray:none;stroke-dashoffset:0;stroke-opacity:1"
           id="rect931-5-8"
           width="7.1436253"
           height="7.1436243"
           x="8.2568207"
           y="11.691348" />
        <rect
           style="fill:none;fill-opacity:1;stroke:#ffffff;stroke-width:1;stroke-linecap:round;stroke-linejoin:miter;stroke-miterlimit:4;stroke-dasharray:none;stroke-dashoffset:0;stroke-opacity:1"
           id="rect931-3-6-8"
           width="7.1436253"
           height="7.1436243"
           x="15.400446"
           y="11.691348" />
        <rect
           style="fill:none;fill-opacity:1;stroke:#ffffff;stroke-width:1;stroke-linecap:round;stroke-linejoin:miter;stroke-miterlimit:4;stroke-dasharray:none;stroke-dashoffset:0;stroke-opacity:1"
           id="rect931-6-2-43"
           width="7.1436253"
           height="7.1436243"
           x="22.544071"
           y="11.691348" />
        <rect
           style="fill:none;fill-opacity:1;stroke:#ffffff;stroke-width:1;stroke-linecap:round;stroke-linejoin:miter;stroke-miterlimit:4;stroke-dasharray:none;stroke-dashoffset:0;stroke-opacity:1"
           id="rect931-7-9-1"
           width="7.1436253"
           height="7.1436243"
           x="29.687696"
           y="11.691348" />
      </g>
    </g>
    <g
       id="g1088-49"
       transform="translate(-1.1279296e-7,35.718121)">
      <g
         id="g984-2">
        <rect
           style="fill:none;fill-opacity:1;stroke:#ffffff;stroke-width:1;stroke-linecap:round;stroke-linejoin:miter;stroke-miterlimit:4;stroke-dasharray:none;stroke-dashoffset:0;stroke-opacity:1"
           id="rect931-06"
           width="7.1436253"
           height="7.1436243"
           x="8.2568207"
           y="11.691348" />
        <rect
           style="fill:none;fill-opacity:1;stroke:#ffffff;stroke-width:1;stroke-linecap:round;stroke-linejoin:miter;stroke-miterlimit:4;stroke-dasharray:none;stroke-dashoffset:0;stroke-opacity:1"
           id="rect931-3-8"
           width="7.1436253"
           height="7.1436243"
           x="15.400446"
           y="11.691348" />
        <rect
           style="fill:none;fill-opacity:1;stroke:#ffffff;stroke-width:1;stroke-linecap:round;stroke-linejoin:miter;stroke-miterlimit:4;stroke-dasharray:none;stroke-dashoffset:0;stroke-opacity:1"
           id="rect931-6-9"
           width="7.1436253"
           height="7.1436243"
           x="22.544071"
           y="11.691348" />
        <rect
           style="fill:none;fill-opacity:1;stroke:#ffffff;stroke-width:1;stroke-linecap:round;stroke-linejoin:miter;stroke-miterlimit:4;stroke-dasharray:none;stroke-dashoffset:0;stroke-opacity:1"
           id="rect931-7-26"
           width="7.1436253"
           height="7.1436243"
           x="29.687696"
           y="11.691348" />
      </g>
      <g
         id="g984-3-64"
         transform="translate(28.574501)">
        <rect
           style="fill:none;fill-opacity:1;stroke:#ffffff;stroke-width:1;stroke-linecap:round;stroke-linejoin:miter;stroke-miterlimit:4;stroke-dasharray:none;stroke-dashoffset:0;stroke-opacity:1"
           id="rect931-5-95"
           width="7.1436253"
           height="7.1436243"
           x="8.2568207"
           y="11.691348" />
        <rect
           style="fill:none;fill-opacity:1;stroke:#ffffff;stroke-width:1;stroke-linecap:round;stroke-linejoin:miter;stroke-miterlimit:4;stroke-dasharray:none;stroke-dashoffset:0;stroke-opacity:1"
           id="rect931-3-6-0"
           width="7.1436253"
           height="7.1436243"
           x="15.400446"
           y="11.691348" />
        <rect
           style="fill:none;fill-opacity:1;stroke:#ffffff;stroke-width:1;stroke-linecap:round;stroke-linejoin:miter;stroke-miterlimit:4;stroke-dasharray:none;stroke-dashoffset:0;stroke-opacity:1"
           id="rect931-6-2-48"
           width="7.1436253"
           height="7.1436243"
           x="22.544071"
           y="11.691348" />
        <rect
           style="fill:none;fill-opacity:1;stroke:#ffffff;stroke-width:1;stroke-linecap:round;stroke-linejoin:miter;stroke-miterlimit:4;stroke-dasharray:none;stroke-dashoffset:0;stroke-opacity:1"
           id="rect931-7-9-7"
           width="7.1436253"
           height="7.1436243"
           x="29.687696"
           y="11.691348" />
      </g>
    </g>
    <g
       id="g1088-17"
       transform="translate(-7.5195308e-8,42.861745)">
      <g
         id="g984-27">
        <rect
           style="fill:none;fill-opacity:1;stroke:#ffffff;stroke-width:1;stroke-linecap:round;stroke-linejoin:miter;stroke-miterlimit:4;stroke-dasharray:none;stroke-dashoffset:0;stroke-opacity:1"
           id="rect931-2"
           width="7.1436253"
           height="7.1436243"
           x="8.2568207"
           y="11.691348" />
        <rect
           style="fill:none;fill-opacity:1;stroke:#ffffff;stroke-width:1;stroke-linecap:round;stroke-linejoin:miter;stroke-miterlimit:4;stroke-dasharray:none;stroke-dashoffset:0;stroke-opacity:1"
           id="rect931-3-26"
           width="7.1436253"
           height="7.1436243"
           x="15.400446"
           y="11.691348" />
        <rect
           style="fill:none;fill-opacity:1;stroke:#ffffff;stroke-width:1;stroke-linecap:round;stroke-linejoin:miter;stroke-miterlimit:4;stroke-dasharray:none;stroke-dashoffset:0;stroke-opacity:1"
           id="rect931-6-1"
           width="7.1436253"
           height="7.1436243"
           x="22.544071"
           y="11.691348" />
        <rect
           style="fill:none;fill-opacity:1;stroke:#ffffff;stroke-width:1;stroke-linecap:round;stroke-linejoin:miter;stroke-miterlimit:4;stroke-dasharray:none;stroke-dashoffset:0;stroke-opacity:1"
           id="rect931-7-0"
           width="7.1436253"
           height="7.1436243"
           x="29.687696"
           y="11.691348" />
      </g>
      <g
         id="g984-3-61"
         transform="translate(28.574501)">
        <rect
           style="fill:none;fill-opacity:1;stroke:#ffffff;stroke-width:1;stroke-linecap:round;stroke-linejoin:miter;stroke-miterlimit:4;stroke-dasharray:none;stroke-dashoffset:0;stroke-opacity:1"
           id="rect931-5-5"
           width="7.1436253"
           height="7.1436243"
           x="8.2568207"
           y="11.691348" />
        <rect
           style="fill:none;fill-opacity:1;stroke:#ffffff;stroke-width:1;stroke-linecap:round;stroke-linejoin:miter;stroke-miterlimit:4;stroke-dasharray:none;stroke-dashoffset:0;stroke-opacity:1"
           id="rect931-3-6-9"
           width="7.1436253"
           height="7.1436243"
           x="15.400446"
           y="11.691348" />
        <rect
           style="fill:none;fill-opacity:1;stroke:#ffffff;stroke-width:1;stroke-linecap:round;stroke-linejoin:miter;stroke-miterlimit:4;stroke-dasharray:none;stroke-dashoffset:0;stroke-opacity:1"
           id="rect931-6-2-49"
           width="7.1436253"
           height="7.1436243"
           x="22.544071"
           y="11.691348" />
        <rect
           style="fill:none;fill-opacity:1;stroke:#ffffff;stroke-width:1;stroke-linecap:round;stroke-linejoin:miter;stroke-miterlimit:4;stroke-dasharray:none;stroke-dashoffset:0;stroke-opacity:1"
           id="rect931-7-9-09"
           width="7.1436253"
           height="7.1436243"
           x="29.687696"
           y="11.691348" />
      </g>
    </g>
  </g>
  <rect
     style="fill:url(#radialGradient1501);fill-opacity:1;stroke:none;stroke-width:1.42833;stroke-linecap:round;stroke-linejoin:miter;stroke-miterlimit:4;stroke-dasharray:none;stroke-dashoffset:0;stroke-opacity:1"
     id="rect1476"
     width="83.763969"
     height="85.183212"
     x="0"
     y="0" />
  <text
     xml:space="preserve"
     style="font-style:normal;font-weight:normal;font-size:14.6667px;line-height:1.25;font-family:sans-serif;letter-spacing:0px;word-spacing:0px;fill:#000000;fill-opacity:1;stroke:none"
     x="70.120041"
     y="79.531921"
     id="text1598"><tspan
       sodipodi:role="line"
       id="tspan1596"
       x="70.120041"
       y="79.531921" /></text>
</svg>
